%YAML 1.1
%TAG !u! tag:unity3d.com,2011:
--- !u!1045 &1
EditorBuildSettings:
  m_ObjectHideFlags: 0
  serializedVersion: 2
  m_Scenes:
  - enabled: 1
    path: Assets/Scenes/ARMeshPlacement.unity
    guid: 044ce70d46781a94799acec7b248ce84
  m_configObjects:
    Niantic.Lightship.AR.LightshipSettings: {fileID: 11400000, guid: 5bf5c22f6717ac24992ef527369bc575, type: 2}
    UnityEditor.XR.ARCore.ARCoreSettings: {fileID: 11400000, guid: 59aa62614ad6f7f44b14fd79d5aae111, type: 2}
    UnityEditor.XR.ARKit.ARKitSettings: {fileID: 11400000, guid: 7d6289485471a134b843af5019ae2f86, type: 2}
    com.unity.xr.arfoundation.simulation_settings: {fileID: 11400000, guid: 7c6e85fca6329ad408faec9ea99265e7, type: 2}
    com.unity.xr.management.loader_settings: {fileID: 11400000, guid: 9e91a0de86610e641ba14310e532f06e, type: 2}
    com.unity.xr.openxr.settings4: {fileID: 11400000, guid: 3d186d60dfdedd04fa15ec59461e07a6, type: 2}
